Assignment 1
…
data(airlines)
data(flights)

# making a routes variable, 'origin' + 'dest', calculating the number of different carriers per route
flights %>%
  mutate(routes = str_c(origin, dest, sep = " ")) %>%
  group_by(routes) %>%
  summarise(
    n_airlines = n_distinct(carrier),
  ) %>%
  filter(n_airlines > 1) %>%
  arrange((n_airlines))

# A tibble: 128 × 2
   routes  n_airlines
   <chr>        <int>
 1 EWR AUS          2
 2 EWR BDL          2
 3 EWR BNA          2
 4 EWR BWI          2
 5 EWR CHS          2
 6 EWR CLE          2
 7 EWR CVG          2
 8 EWR DCA          2
 9 EWR DEN          2
10 EWR DFW          2
# ℹ 118 more rows
…
multi_airline_routes <- flights_routes %>%
  group_by(routes) %>%
  filter(n_distinct(carrier) > 1)

avg_delays <- multi_airline_routes %>%
  group_by(routes, carrier) %>%
  summarise(
    avg_arr_delay = mean(arr_delay, na.rm = TRUE),
    .groups = "drop"
  ) 

avg_delays

# A tibble: 343 × 3
   routes  carrier avg_arr_delay
   <chr>   <chr>           <dbl>
 1 EWR-ATL 9E              -6.25
 2 EWR-ATL DL              10.0 
 3 EWR-ATL EV              19.5 
 4 EWR-ATL UA              10.5 
 5 EWR-AUS UA               4.28
 6 EWR-AUS WN             -11.2 
 7 EWR-BDL EV               6.78
 8 EWR-BDL UA              22.6 
 9 EWR-BNA EV              17.7 
10 EWR-BNA WN              -2.13
# ℹ 333 more rows

# Question 6
# Part 3

best_worst_arrival_airlines <- avg_delays %>%
  group_by(routes) %>%
  summarise(
    best_airline = carrier[which.min(avg_arr_delay)],
    worst_airline = carrier[which.max(avg_arr_delay)]
  )

best_worst_arrival_airlines

# A tibble: 128 × 3
   routes  best_airline worst_airline
   <chr>   <chr>        <chr>        
 1 EWR-ATL 9E           EV           
 2 EWR-AUS WN           UA           
 3 EWR-BDL EV           UA           
 4 EWR-BNA WN           EV           
 5 EWR-BOS EV           B6           
 6 EWR-BWI WN           EV           
 7 EWR-CHS UA           EV           
 8 EWR-CLE EV           UA           
 9 EWR-CLT US           EV           
10 EWR-CVG 9E           EV           
# ℹ 118 more rows
…
